<?xml version="1.0" standalone="no"?>
<!DOCTYPE svg PUBLIC "-//W3C//DTD SVG 20010904//EN"
 "http://www.w3.org/TR/2001/REC-SVG-20010904/DTD/svg10.dtd">
<svg version="1.0" xmlns="http://www.w3.org/2000/svg"
 width="800.000000pt" height="800.000000pt" viewBox="0 0 800.000000 800.000000"
 preserveAspectRatio="xMidYMid meet">
<metadata>
Created by potrace 1.14, written by Peter Selinger 2001-2017
</metadata>
<g transform="translate(0.000000,800.000000) scale(0.100000,-0.100000)"
fill="#000000" stroke="none">
<path d="M3980 6995 c-12 -27 -49 -117 -82 -200 -33 -82 -70 -175 -83 -205
-13 -30 -37 -89 -53 -130 -16 -41 -73 -183 -127 -315 -147 -360 -388 -956
-552 -1360 -80 -198 -152 -372 -159 -387 -8 -15 -15 -31 -15 -35 -2 -14 -182
-460 -205 -507 -8 -16 -14 -33 -14 -38 0 -5 -9 -28 -19 -51 -10 -23 -51 -123
-91 -222 -40 -99 -78 -193 -86 -210 -7 -16 -32 -77 -54 -135 -23 -58 -47 -118
-55 -135 -7 -16 -36 -88 -65 -160 -28 -71 -58 -143 -65 -160 -7 -16 -31 -75
-53 -130 -36 -88 -315 -776 -529 -1305 -42 -102 -91 -223 -110 -270 -19 -47
-40 -101 -48 -121 l-13 -36 239 0 239 0 59 151 c32 83 98 252 146 376 48 124
118 304 156 400 37 96 111 288 164 425 53 138 100 259 105 270 5 11 18 43 28
70 10 28 23 59 27 70 5 11 9 22 10 25 1 3 5 14 10 25 5 11 28 72 52 135 25 63
55 142 68 175 51 131 731 1882 802 2065 75 196 127 328 143 365 4 11 31 79 58
150 51 132 97 252 147 383 16 40 32 69 36 65 4 -4 42 -96 84 -203 146 -373
198 -506 267 -685 39 -99 76 -193 83 -210 7 -16 40 -100 73 -185 33 -85 90
-230 126 -321 36 -91 66 -169 66 -173 0 -4 9 -28 21 -54 32 -74 35 -82 68
-167 17 -44 36 -93 42 -110 7 -16 13 -32 14 -35 1 -3 5 -14 10 -25 4 -11 102
-261 217 -555 115 -294 240 -614 278 -710 38 -96 106 -272 153 -390 46 -118
127 -325 180 -460 53 -135 135 -344 182 -465 47 -121 102 -261 122 -311 l35
-91 243 0 244 0 -21 51 c-45 117 -270 673 -283 701 -7 17 -43 104 -80 195 -36
91 -72 179 -80 197 -8 17 -15 33 -15 36 0 3 -61 155 -136 339 -144 354 -366
901 -459 1133 -31 77 -63 154 -70 170 -7 17 -65 161 -129 320 -64 160 -121
299 -125 310 -5 11 -16 36 -24 55 -8 19 -47 116 -87 215 -39 99 -78 194 -85
210 -7 17 -41 100 -75 185 -34 85 -68 169 -75 185 -21 47 -206 506 -221 545
-7 19 -22 58 -34 85 -12 28 -78 190 -147 360 -69 171 -168 416 -221 545 -52
129 -103 255 -113 280 l-17 45 -22 -50z"/>
<path d="M3993 3618 c-5 -7 -30 -53 -56 -103 -25 -49 -71 -137 -102 -195 -30
-58 -74 -142 -97 -187 l-41 -83 26 -52 c15 -29 67 -129 117 -223 49 -93 104
-198 121 -232 18 -35 35 -63 39 -63 4 0 23 30 42 68 19 37 68 130 108 207 41
77 92 175 114 218 l41 78 -48 92 c-27 51 -88 169 -137 262 -49 94 -95 182
-103 198 -11 21 -17 24 -24 15z"/>
</g>
</svg>
