<svg viewBox="0 0 51 41" fill="none" xmlns="http://www.w3.org/2000/svg">
<path fill-rule="evenodd" clip-rule="evenodd" d="M6.40458 26.8408H9.41183H17.5611H20.5708H21.4996V28.181H16.0844V27.4075H10.2329V28.181H5.47447V26.8408H6.40458ZM4.38137 26.481V26.4283V26.0428L5.31026 25.1677V26.4283H5.03698V26.481H4.38137ZM4.38137 24.136L5.9671 22.6441V23.338H5.31026V24.8042L4.38137 25.6818V24.136ZM4.38137 22.2304L6.62394 20.1204V21.2256H5.9671V22.2549L4.38137 23.7505V22.2304ZM4.38137 20.2978L5.9671 18.8035V19.8854H6.4585L4.38137 21.8436V20.2978ZM4.38137 18.3665L5.9671 16.8734V18.4436L4.38137 19.9368V18.3665ZM4.38137 16.4597L6.62394 14.3497V15.1452V15.9187L4.38137 18.0312V16.4597ZM4.38137 14.5529L7.52832 11.591H7.13985L4.38137 14.193V12.6473L5.50388 11.591H5.09213L4.38137 12.2605V11.591V8.55088H22.5388V11.591V12.4147L20.2963 14.5272V14.1673H19.0255L21.7619 11.591H21.3906L18.6554 14.1673H16.9998L19.7375 11.591H19.3245L16.5917 14.1673H14.9741L17.7118 11.591H17.289L14.5526 14.1673H12.9497L15.6861 11.591H15.2646L12.5306 14.1673H10.8885L13.6249 11.591H13.2414L10.5062 14.1673H8.842L11.5809 11.591H11.2181L8.48294 14.1673H6.81756L9.55398 11.591H9.1937L4.38137 16.1244V14.5529ZM22.5388 14.3216L20.2963 16.434V15.1452V14.8882L22.5388 12.7758V14.3216ZM22.5388 16.2284L20.9531 17.7215V16.5882H20.5585L22.5388 14.7242V16.2284ZM22.5388 18.1438L20.9531 19.6382V18.123L22.5388 16.6311V18.1438ZM22.5388 20.091L20.9531 21.5866V21.2256H20.2963V20.6467L22.5388 18.5367V20.091ZM22.5388 21.9978L21.1173 23.338H20.9531V21.9354L22.5388 20.4435V21.9978ZM22.5388 23.9047L21.5536 24.8312V23.338H21.4898L22.5388 22.3491V23.9047ZM22.5388 25.8103L21.882 26.4283H21.5536V25.1922L22.5388 24.2657V25.8103ZM22.5388 26.4283H22.3097L22.5388 26.2129V26.4283ZM6.62394 16.4854V16.5882H6.26978L6.62394 16.2565V16.4854ZM7.0602 21.2256H19.8588V16.4854H7.0602V21.2256ZM20.2963 19.9368H20.6357L20.2963 20.2575V19.9368ZM8.97557 24.1617V24.2657C8.97557 24.7798 8.48294 25.1922 7.93517 25.1408C7.38984 25.1922 6.89599 24.7798 6.89599 24.2657V24.1617C6.89599 23.6464 7.38984 23.234 7.93517 23.234C8.48294 23.234 8.97557 23.595 8.97557 24.1617ZM9.95961 25.038H17.0697V24.5227H9.95961V25.038ZM9.95961 23.8533H17.0697V23.338H9.95961V23.8533ZM20.023 24.0589V24.1617C20.023 24.7798 19.5316 25.1922 18.9838 25.1408C18.4373 25.1408 17.9446 24.7798 17.9446 24.2131V24.1103C17.9998 23.595 18.4373 23.1826 18.9838 23.1826C19.5316 23.1312 20.023 23.5436 20.023 24.0589ZM5.03698 28.5408H5.41932V31.2199H8.20967V29.1601H10.2329H16.0844H18.7105V31.2199H21.4996V28.5408H21.9371V26.8408H22.9751V8.13965H3.9978V26.8408H5.03698V28.5408Z" fill="#32334E"/>
<path fill-rule="evenodd" clip-rule="evenodd" d="M30.7449 26.8408H33.7534H41.9026H44.9111H45.7848V28.181H40.4259V27.4075H34.5744V28.181H29.7609V26.8408H30.7449ZM28.7229 26.481V8.55088H46.8792V9.6328V10.5091L42.9969 14.1673H41.3548L46.1684 9.6328H45.7419L40.9333 14.1673H39.3328L44.1464 9.6328H43.7077L38.8941 14.1673H37.3072L42.1207 9.6328H41.6845L36.8709 14.1673H35.2509L40.0595 9.6328H39.66L34.8477 14.1673H33.2068L38.0204 9.6328H37.6368L32.8233 14.1673H31.1824L35.996 9.6328H35.6136L28.7768 16.073V16.434L30.9643 14.373V15.1452V15.9187L28.7768 17.9798V18.3396L30.9643 16.2798V16.4854V17.4645H30.3087V18.4436L28.7768 19.8854V20.2721L30.6064 18.5464H30.9643V19.0103H30.3087V20.3493L28.7768 21.7922V22.2035L30.5807 20.5035H30.9643V21.2256H30.3626H30.3087V22.2549L28.7768 23.6978V24.1103L30.3087 22.6673V23.338H29.6506V24.8042L28.7768 25.6291V26.0171L29.6506 25.1922V26.4283H29.3785V26.481H28.7229ZM46.661 26.4283L46.8792 26.2227V26.4283H46.661ZM33.2608 23.234L33.2068 25.1408H31.1824V23.234H33.2608ZM34.246 25.038H34.9029V24.5227H34.246V25.038ZM34.2448 23.8533H34.9016V23.338H34.2448V23.8533ZM35.5033 25.038H36.1602V24.5227H35.5033V25.038ZM35.5033 23.8533H36.1602V23.338H35.5033V23.8533ZM36.8158 25.038H37.4726V24.5227H36.8158V25.038ZM36.8158 23.8533H37.4726V23.338H36.8158V23.8533ZM38.0743 25.038H38.7312V24.5227H38.0743V25.038ZM38.0731 23.8533H38.7299V23.338H38.0731V23.8533ZM39.3328 25.038H39.9885V24.5227H39.3328V25.038ZM39.3328 23.8533H39.9885V23.338H39.3328V23.8533ZM40.5902 25.038H41.2458V24.5227H40.5902V25.038ZM40.5902 23.8533H41.2458V23.338H40.5902V23.8533ZM42.4492 25.1408H44.4736V23.234H42.4492V25.1408ZM31.4018 21.2256H44.1991V16.4854H31.4018V21.2256ZM46.8792 25.8103L46.2235 26.4283H45.8951V25.202L46.8792 24.2743V25.8103ZM46.8792 23.9047L45.8951 24.8312V23.338H45.84L46.8792 22.3589V23.9047ZM46.8792 20.091L45.3486 21.534V21.895L46.8792 20.4521V21.9978L45.4576 23.338H45.3486H45.2934V21.2256H44.6917H44.6378V20.5035H44.6917V20.6075L44.802 20.5035H45.2395V20.091L46.8792 18.5464V20.091ZM46.8792 18.1438L45.2395 19.6896V19.0103H44.6917H44.6378V18.5464H44.6917V18.7007L44.8572 18.5464H45.2395V18.1854L46.8792 16.6396V18.1438ZM46.8792 12.4147L44.6917 14.4758V14.8478L46.8792 12.7856V14.3216L44.6917 16.3826V16.7951L46.8792 14.734V16.2284L45.2395 17.7729V17.4645H44.6917H44.6378V16.4854V15.1452V14.1673H43.3805L46.8792 10.8702V12.4147ZM29.3785 28.5408H29.7609V31.2199H32.55V29.1601H34.5744H40.4259H43.0509V31.2199H45.84V28.5408H46.2235H46.2787V26.8408H47.3166V8.13965H28.3394V26.8408H29.3785V28.5408Z" fill="#32334E"/>
<path fill-rule="evenodd" clip-rule="evenodd" d="M39.2747 1.75061L39.1105 1.6478L38.7821 2.00763V1.23535H38.6191V2.00763L38.2894 1.6478L38.1265 1.75061L38.7282 2.36868L39.2747 1.75061Z" fill="#32334E"/>
<path fill-rule="evenodd" clip-rule="evenodd" d="M35.2293 2.57477L34.7367 2.16232L33.5885 3.39846V0.771973H32.9316V3.44986L31.7294 2.16232L31.2368 2.57477L33.3152 4.68722L35.2293 2.57477Z" fill="#32334E"/>
<path fill-rule="evenodd" clip-rule="evenodd" d="M14.9373 2.72958L14.7731 2.57537L14.3368 3.08941V1.85327H14.0623V3.08941L13.5709 2.57537L13.3516 2.72958L14.1714 3.60467L14.9373 2.72958Z" fill="#32334E"/>
<path fill-rule="evenodd" clip-rule="evenodd" d="M45.2939 2.42008L45.0194 2.21447L44.4189 2.88394V1.23535H44.0366V2.88394L43.3797 2.21447L43.1064 2.42008L44.2547 3.60482L45.2939 2.42008Z" fill="#32334E"/>
<path fill-rule="evenodd" clip-rule="evenodd" d="M7.66313 1.90485L7.28079 1.54503L6.35067 2.57432V0.102051H5.85804V2.57432L4.82009 1.54503L4.43652 1.85345L6.0774 3.60485L7.66313 1.90485Z" fill="#32334E"/>
<path fill-rule="evenodd" clip-rule="evenodd" d="M31.5094 9.63306L28.7754 12.2081V12.6206L31.9468 9.63306H31.5094Z" fill="#32334E"/>
<path fill-rule="evenodd" clip-rule="evenodd" d="M29.4862 9.63281L28.7754 10.3023V10.7147L29.9236 9.63281H29.4862Z" fill="#32334E"/>
<path fill-rule="evenodd" clip-rule="evenodd" d="M33.5559 9.63306L28.7754 14.1407V14.5274L33.9713 9.63306H33.5559Z" fill="#32334E"/>
<path fill-rule="evenodd" clip-rule="evenodd" d="M0.499023 33.7966H50.8171V32.5078H0.499023V33.7966Z" fill="#32334E"/>
<path fill-rule="evenodd" clip-rule="evenodd" d="M23.8534 36.6808C23.8534 36.0627 24.3999 35.5989 25.0016 35.5989C25.6033 35.5989 26.1511 36.0627 26.1511 36.6808C26.1511 37.2989 25.6584 37.7627 25.0016 37.7627C24.3999 37.7627 23.8534 37.2989 23.8534 36.6808ZM27.2454 36.6808C27.2454 35.5475 26.2601 34.5684 25.0016 34.5684C23.7431 34.5684 22.759 35.4961 22.759 36.6808C22.759 37.8655 23.7431 38.7933 25.0016 38.7933C26.2601 38.7933 27.2454 37.8655 27.2454 36.6808Z" fill="#32334E"/>
<path fill-rule="evenodd" clip-rule="evenodd" d="M47.3176 39.7207H45.075H42.8325H40.536H38.2934H36.0521H33.8095H31.5657H29.268H27.0254H24.7841H22.5415H20.2989H18.0024H15.7599H13.5173H11.2747H9.03217H6.73568H4.49311H2.25176H1.10229V39.9777H1.96256L1.15744 40.6998L1.37557 40.9054L2.3596 39.9777H4.21983L3.45393 40.6998L3.61814 40.9054L4.6034 39.9777H6.46118L5.6965 40.6998L5.86071 40.9054L6.84474 39.9777H8.74419L7.93784 40.6998L8.15842 40.9054L9.09344 39.9777H10.988L10.1804 40.6998L10.3998 40.9054L11.336 39.9777H13.2306L12.423 40.6998L12.6423 40.9054L13.6276 39.9777H15.4866L14.7207 40.6998L14.8849 40.9054L15.8702 39.9777H17.7279L16.9633 40.6998L17.1262 40.9054L18.1115 39.9777H20.0122L19.2058 40.6998L19.424 40.9054L20.3602 39.9777H22.2535L21.4484 40.6998L21.6665 40.9054L22.6015 39.9777H24.4961L23.691 40.6998L23.9091 40.9054L24.8931 39.9777H26.7534L25.9875 40.6998L26.1529 40.9054L27.1357 39.9777H28.9959L28.23 40.6998L28.3942 40.9054L29.3783 39.9777H31.2789L30.4726 40.6998L30.6368 40.9054L31.6208 39.9777H33.5203L32.7152 40.6998L32.9333 40.9054L33.8683 39.9777H35.7629L34.9577 40.6998L35.1759 40.9054L36.1611 39.9777H38.0201L37.2542 40.6998L37.4184 40.9054L38.4037 39.9777H40.2615L39.4968 40.6998L39.661 40.9054L40.645 39.9777H42.5445L41.7381 40.6998L41.9036 40.9054L42.8876 39.9777H44.7883L43.9807 40.6998L44.2001 40.9054L45.1351 39.9777H47.0308L46.2233 40.6998L46.4426 40.9054L47.3776 39.9777H49.2869L48.521 40.6998L48.684 40.9054L49.6692 39.9777H50.8175V39.7207H49.5602H47.3176Z" fill="#32334E"/>
</svg>
