<?xml version="1.0" encoding="utf-8"?>
<svg xmlns="http://www.w3.org/2000/svg" xmlns:xlink="http://www.w3.org/1999/xlink" x="0px" y="0px" viewBox="0 0 50 25" style="enable-background:new 0 0 50 25;" xml:space="preserve">
<path style="fill-rule:evenodd;clip-rule:evenodd;fill:#FFFFFF;" d="M34.7,5.3c-0.3-0.3-0.8-0.3-1.2,0L27.8,11c0,0,0,0,0,0h-0.2
	c0,0,0,0,0,0l-5.7-5.7c-0.3-0.3-0.8-0.3-1.2,0L15,11c-0.1,0.1-0.1,0.1-0.2,0.2c-0.2,0.2-0.3,0.4-0.3,0.6v12.6h26.3V11.8
	c0-0.3-0.2-0.6-0.5-0.8c0,0,0-0.1-0.1-0.1L34.7,5.3z"/>
<defs>
	<filter id="Adobe_OpacityMaskFilter" filterUnits="userSpaceOnUse" x="13.8" y="4.3" width="28" height="21">
		<feColorMatrix  type="matrix" values="1 0 0 0 0  0 1 0 0 0  0 0 1 0 0  0 0 0 1 0"/>
	</filter>
</defs>
<mask maskUnits="userSpaceOnUse" x="13.8" y="4.3" width="28" height="21" id="path-1-inside-1_538_1284_00000019645847221855735330000015359358209049839542_">
	<path style="fill-rule:evenodd;clip-rule:evenodd;fill:#FFFFFF;filter:url(#Adobe_OpacityMaskFilter);" d="M34.7,5.3
		c-0.3-0.3-0.8-0.3-1.2,0L27.8,11c0,0,0,0,0,0h-0.2c0,0,0,0,0,0l-5.7-5.7c-0.3-0.3-0.8-0.3-1.2,0L15,11c-0.1,0.1-0.1,0.1-0.2,0.2
		c-0.2,0.2-0.3,0.4-0.3,0.6v12.6h26.3V11.8c0-0.3-0.2-0.6-0.5-0.8c0,0,0-0.1-0.1-0.1L34.7,5.3z"/>
</mask>
<path style="mask:url(#path-1-inside-1_538_1284_00000019645847221855735330000015359358209049839542_);fill:#32334E;" d="M33.5,5.3
	l0.6,0.6l0,0L33.5,5.3z M34.7,5.3l0.6-0.6v0L34.7,5.3z M27.8,11l0.6,0.6L27.8,11z M27.8,11v0.8h0.4l0.2-0.3L27.8,11z M27.6,11
	L27,11.6l0.2,0.3h0.4V11z M27.6,11L27,11.6v0L27.6,11z M21.9,5.3l-0.6,0.6l0,0L21.9,5.3z M20.7,5.3l-0.6-0.6l0,0L20.7,5.3z M15,11
	l-0.6-0.6l0,0L15,11z M14.9,11.2l0.5,0.6l0.1-0.1l0.1-0.2L14.9,11.2z M14.6,24.4h-0.8v0.8h0.8V24.4z M40.9,24.4v0.8h0.8v-0.8H40.9z
	 M40.4,11.1l-0.7,0.5l0.1,0.2l0.2,0.1L40.4,11.1z M40.4,11l0.6-0.6v0L40.4,11z M34.1,5.9L34.1,5.9l1.2-1.2c-0.6-0.6-1.7-0.6-2.3,0
	L34.1,5.9z M28.4,11.6l5.7-5.7l-1.2-1.2l-5.7,5.7L28.4,11.6z M28.4,11.6L28.4,11.6l-1.2-1.2c0,0,0,0,0,0L28.4,11.6z M27.8,10.2h-0.2
	v1.6h0.2V10.2z M28.2,10.5C28.2,10.5,28.2,10.4,28.2,10.5L27,11.6l0,0L28.2,10.5z M28.2,10.4l-5.7-5.7l-1.2,1.2l5.7,5.7L28.2,10.4z
	 M22.5,4.7c-0.6-0.6-1.7-0.6-2.3,0l1.2,1.2l0,0L22.5,4.7z M20.2,4.7l-5.7,5.7l1.2,1.2l5.7-5.7L20.2,4.7z M14.5,10.4
	c-0.1,0.1-0.2,0.3-0.3,0.5l1.5,0.7l0,0L14.5,10.4z M14.3,10.6c-0.3,0.3-0.6,0.7-0.6,1.2h1.6l0,0L14.3,10.6z M13.8,11.8v12.6h1.6
	V11.8H13.8z M14.6,25.2h26.3v-1.6H14.6V25.2z M41.8,24.4V11.8h-1.6v12.6H41.8z M41.8,11.8c0-0.7-0.4-1.3-1-1.5l-0.6,1.5l0,0H41.8z
	 M39.8,11.6C39.8,11.6,39.8,11.6,39.8,11.6C39.8,11.6,39.8,11.6,39.8,11.6C39.8,11.6,39.8,11.6,39.8,11.6l1.3-1
	c0-0.1-0.1-0.1-0.1-0.2L39.8,11.6z M34.1,5.9l5.7,5.7l1.2-1.2l-5.7-5.7L34.1,5.9z"/>
<path style="fill:#FFFFFF;stroke:#32334E;" d="M8.1,15.7c0-0.7,0.6-1.2,1.2-1.2H15V24H8.1V15.7z"/>
<path style="fill:#FFFFFF;stroke:#32334E;" d="M42.4,15.7c0-0.7-0.6-1.2-1.2-1.2h-0.6V24h1.8V15.7z"/>
<path style="fill:#FFFFFF;stroke:#32334E;" d="M6.4,17.9c0-0.4,0.4-0.8,0.8-0.8H15v1.6H7.3C6.8,18.7,6.4,18.4,6.4,17.9z"/>
<path style="fill:none;stroke:#32334E;" d="M17.9,16.9c0-0.7,0.6-1.2,1.2-1.2h4.7c0.7,0,1.2,0.6,1.2,1.2V24h-7.2V16.9z"/>
<path style="fill-rule:evenodd;clip-rule:evenodd;fill:#32334E;" d="M20.2,17.9c-0.3,0-0.5,0.2-0.5,0.5v1.1c0,0.3,0.2,0.5,0.5,0.5
	c0.3,0,0.5-0.2,0.5-0.5v-1.1C20.6,18.1,20.4,17.9,20.2,17.9z"/>
<path style="fill-rule:evenodd;clip-rule:evenodd;fill:#32334E;" d="M21.6,17.9c-0.3,0-0.5,0.2-0.5,0.5v1.1c0,0.3,0.2,0.5,0.5,0.5
	c0.3,0,0.5-0.2,0.5-0.5v-1.1C22.1,18.1,21.8,17.9,21.6,17.9z"/>
<path style="fill-rule:evenodd;clip-rule:evenodd;fill:#32334E;" d="M20.2,20.4c-0.3,0-0.5,0.2-0.5,0.5V22c0,0.3,0.2,0.5,0.5,0.5
	c0.3,0,0.5-0.2,0.5-0.5v-1.1C20.6,20.6,20.4,20.4,20.2,20.4z"/>
<path style="fill-rule:evenodd;clip-rule:evenodd;fill:#32334E;" d="M23,17.9c-0.3,0-0.5,0.2-0.5,0.5v1.1c0,0.3,0.2,0.5,0.5,0.5
	c0.3,0,0.5-0.2,0.5-0.5v-1.1C23.5,18.1,23.2,17.9,23,17.9z"/>
<path style="fill-rule:evenodd;clip-rule:evenodd;fill:#32334E;" d="M21.6,20.4c-0.3,0-0.5,0.2-0.5,0.5V22c0,0.3,0.2,0.5,0.5,0.5
	c0.3,0,0.5-0.2,0.5-0.5v-1.1C22.1,20.6,21.8,20.4,21.6,20.4z"/>
<path style="fill-rule:evenodd;clip-rule:evenodd;fill:#32334E;" d="M19.4,11.6c-0.3,0-0.5,0.2-0.5,0.5v1.1c0,0.3,0.2,0.5,0.5,0.5
	c0.3,0,0.5-0.2,0.5-0.5v-1.1C19.9,11.9,19.7,11.6,19.4,11.6z"/>
<path style="fill-rule:evenodd;clip-rule:evenodd;fill:#32334E;" d="M23,20.4c-0.3,0-0.5,0.2-0.5,0.5V22c0,0.3,0.2,0.5,0.5,0.5
	c0.3,0,0.5-0.2,0.5-0.5v-1.1C23.5,20.6,23.2,20.4,23,20.4z"/>
<path style="fill-rule:evenodd;clip-rule:evenodd;fill:#32334E;" d="M21.5,11.6c-0.3,0-0.5,0.2-0.5,0.5v1.1c0,0.3,0.2,0.5,0.5,0.5
	c0.3,0,0.5-0.2,0.5-0.5v-1.1C22,11.9,21.8,11.6,21.5,11.6z"/>
<path style="fill-rule:evenodd;clip-rule:evenodd;fill:#32334E;" d="M23.6,11.6c-0.3,0-0.5,0.2-0.5,0.5v1.1c0,0.3,0.2,0.5,0.5,0.5
	c0.3,0,0.5-0.2,0.5-0.5v-1.1C24.1,11.9,23.9,11.6,23.6,11.6z"/>
<path style="fill:none;stroke:#32334E;" d="M30.3,16.9c0-0.7,0.6-1.2,1.2-1.2h4.7c0.7,0,1.2,0.6,1.2,1.2V24h-7.2V16.9z"/>
<path style="fill-rule:evenodd;clip-rule:evenodd;fill:#32334E;" d="M32.6,17.9c-0.3,0-0.5,0.2-0.5,0.5v1.1c0,0.3,0.2,0.5,0.5,0.5
	c0.3,0,0.5-0.2,0.5-0.5v-1.1C33.1,18.1,32.9,17.9,32.6,17.9z"/>
<path style="fill-rule:evenodd;clip-rule:evenodd;fill:#32334E;" d="M34,17.9c-0.3,0-0.5,0.2-0.5,0.5v1.1c0,0.3,0.2,0.5,0.5,0.5
	c0.3,0,0.5-0.2,0.5-0.5v-1.1C34.5,18.1,34.3,17.9,34,17.9z"/>
<path style="fill-rule:evenodd;clip-rule:evenodd;fill:#32334E;" d="M32.6,20.4c-0.3,0-0.5,0.2-0.5,0.5V22c0,0.3,0.2,0.5,0.5,0.5
	c0.3,0,0.5-0.2,0.5-0.5v-1.1C33.1,20.6,32.9,20.4,32.6,20.4z"/>
<path style="fill-rule:evenodd;clip-rule:evenodd;fill:#32334E;" d="M35.4,17.9c-0.3,0-0.5,0.2-0.5,0.5v1.1c0,0.3,0.2,0.5,0.5,0.5
	c0.3,0,0.5-0.2,0.5-0.5v-1.1C35.9,18.1,35.7,17.9,35.4,17.9z"/>
<path style="fill-rule:evenodd;clip-rule:evenodd;fill:#32334E;" d="M34,20.4c-0.3,0-0.5,0.2-0.5,0.5V22c0,0.3,0.2,0.5,0.5,0.5
	c0.3,0,0.5-0.2,0.5-0.5v-1.1C34.5,20.6,34.3,20.4,34,20.4z"/>
<path style="fill-rule:evenodd;clip-rule:evenodd;fill:#32334E;" d="M31.8,11.6c-0.3,0-0.5,0.2-0.5,0.5v1.1c0,0.3,0.2,0.5,0.5,0.5
	s0.5-0.2,0.5-0.5v-1.1C32.3,11.9,32.1,11.6,31.8,11.6z"/>
<path style="fill-rule:evenodd;clip-rule:evenodd;fill:#32334E;" d="M35.4,20.4c-0.3,0-0.5,0.2-0.5,0.5V22c0,0.3,0.2,0.5,0.5,0.5
	c0.3,0,0.5-0.2,0.5-0.5v-1.1C35.9,20.6,35.7,20.4,35.4,20.4z"/>
<path style="fill-rule:evenodd;clip-rule:evenodd;fill:#32334E;" d="M33.9,11.6c-0.3,0-0.5,0.2-0.5,0.5v1.1c0,0.3,0.2,0.5,0.5,0.5
	c0.3,0,0.5-0.2,0.5-0.5v-1.1C34.4,11.9,34.2,11.6,33.9,11.6z"/>
<path style="fill-rule:evenodd;clip-rule:evenodd;fill:#32334E;" d="M36,11.6c-0.3,0-0.5,0.2-0.5,0.5v1.1c0,0.3,0.2,0.5,0.5,0.5
	c0.3,0,0.5-0.2,0.5-0.5v-1.1C36.5,11.9,36.3,11.6,36,11.6z"/>
<path style="fill:none;stroke:#32334E;" d="M10.4,21.2c0-0.2,0.2-0.4,0.4-0.4h1.4c0.2,0,0.4,0.2,0.4,0.4V24h-2.2V21.2z"/>
<line style="fill:none;stroke:#32334E;stroke-linecap:round;" x1="45" y1="24.1" x2="5" y2="24.1"/>
</svg>
